%YAML 1.1
%TAG !u! tag:unity3d.com,2011:
--- !u!162 &1
EditorUserSettings:
  m_ObjectHideFlags: 0
  serializedVersion: 4
  m_ConfigSettings:
    RecentlyUsedSceneGuid-0:
      value: 5657555701055b095d0a5e741372094442164e7b797f72677d2d4b30e0e53061
      flags: 0
    RecentlyUsedSceneGuid-1:
      value: 5453075656540d595f56087442775e4410154e2c7e7d7f602c7a4f36bab73260
      flags: 0
    RecentlyUsedSceneGuid-2:
      value: 5b57505107035f580e5a547341260d44464f4b792f78703378704c35e6e16268
      flags: 0
    RecentlyUsedSceneGuid-3:
      value: 5600565503030b0b5a5a5a7242260c44154e4b7c7e2e72367a2a4c67bab8373c
      flags: 0
    RecentlyUsedSceneGuid-4:
      value: 02555700540c0c0f59085d7a48265b4445154c7c7c7925657a7e4863b3e4356f
      flags: 0
    RecentlyUsedSceneGuid-5:
      value: 5554525557040b0c0f0a597b41720f44474f4e2e7a7120342f2d4f32e0b7316a
      flags: 0
    RecentlyUsedSceneGuid-6:
      value: 075701555c075f5d0b5854204726594415164b2b792e7f34757d4b67bbb4673b
      flags: 0
    RecentlyUsedSceneGuid-7:
      value: 570752075c07500a085c097245210744444e492f7f797768792c4f30e1e46660
      flags: 0
    RecentlyUsedSceneGuid-8:
      value: 0701550553025d0f0c5e0a7347220a444015497c2f7e27642c784964b7e3373e
      flags: 0
    RecentlyUsedSceneGuid-9:
      value: 0104005306055b585d0b5b2711225e4442164d727c2c75667f7c4836b4e63069
      flags: 0
    vcSharedLogLevel:
      value: 0d5e400f0650
      flags: 0
  m_VCAutomaticAdd: 1
  m_VCDebugCom: 0
  m_VCDebugCmd: 0
  m_VCDebugOut: 0
  m_SemanticMergeMode: 2
  m_DesiredImportWorkerCount: 4
  m_StandbyImportWorkerCount: 2
  m_IdleImportWorkerShutdownDelay: 60000
  m_VCShowFailedCheckout: 1
  m_VCOverwriteFailedCheckoutAssets: 1
  m_VCProjectOverlayIcons: 1
  m_VCHierarchyOverlayIcons: 1
  m_VCOtherOverlayIcons: 1
  m_VCAllowAsyncUpdate: 1
  m_ArtifactGarbageCollection: 1
